<svg width="32" height="32" viewBox="0 0 32 32" fill="none" xmlns="http://www.w3.org/2000/svg">
<circle cx="16" cy="16" r="15.5" fill="#E8E7EB" stroke="#7759C2"/>
<path d="M16 16H32C32 7.16344 24.8366 0 16 0V16Z" fill="#7759C2"/>
</svg>
